{
    "ui": {
        "port": 3000
    },
    "server": {
        "routes": {
            "/node_modules": "node_modules"
        }
    },
    "https": {
    "key": "./certs/localhost.key",
    "cert": "./certs/localhost.crt"
},
    "watch": true,
    "files": "*.*"
}